<?xml version="1.0" encoding="iso-8859-1"?>
<!-- Generator: Adobe Illustrator 19.0.0, SVG Export Plug-In . SVG Version: 6.00 Build 0)  -->
<svg xmlns="http://www.w3.org/2000/svg" xmlns:xlink="http://www.w3.org/1999/xlink" version="1.1" id="Capa_1" x="0px" y="0px" viewBox="0 0 512 512" style="enable-background:new 0 0 512 512;" xml:space="preserve" width="512px" height="512px">
<g>
	<g>
		<g>
			<path d="M101.246,196.667c11.029,2.025,22.725,3.708,34.767,5c4.685,0.502,8.89-2.89,9.392-7.575     c0.502-4.685-2.89-8.89-7.575-9.392c-11.617-1.25-22.888-2.867-33.5-4.817c-3.002-0.559-6.074,0.528-8.055,2.851     s-2.57,5.528-1.544,8.404C95.757,194.014,98.241,196.123,101.246,196.667z" fill="#FFFFFF"/>
			<path d="M101.246,264.933c11.029,2.025,22.725,3.708,34.767,5c4.685,0.502,8.89-2.89,9.392-7.575     c0.502-4.685-2.89-8.89-7.575-9.392c-11.617-1.25-22.888-2.867-33.5-4.817c-3.002-0.559-6.074,0.528-8.055,2.851     c-1.981,2.323-2.57,5.528-1.544,8.404C95.757,262.281,98.241,264.389,101.246,264.933z" fill="#FFFFFF"/>
			<path d="M145.441,330.166c0.238-4.527-3.104-8.449-7.611-8.933c-11.617-1.25-22.888-2.867-33.5-4.817     c-3.002-0.559-6.073,0.528-8.055,2.851c-1.981,2.323-2.57,5.528-1.544,8.404c1.026,2.876,3.511,4.984,6.515,5.528     c11.029,2.025,22.725,3.708,34.767,5c0.306,0.033,0.613,0.05,0.921,0.05C141.466,338.243,145.202,334.693,145.441,330.166z" fill="#FFFFFF"/>
			<path d="M455.238,376.25c0.422-3.802,0.633-7.625,0.634-11.45c0-43.33-26.923-79.65-62.95-89.2V68.267     C392.921,23.925,291.8,0,196.654,0S0.388,23.925,0.388,68.267v273.067c0,34.761,60.534,55.142,122.14,63.524     c-7.376,11.734-11.262,25.325-11.207,39.184c0,37.475,27.271,67.958,60.791,67.958h278.709c33.521,0,60.791-30.483,60.791-67.958     C511.613,408.225,486.704,378.792,455.238,376.25z M196.654,17.067c111.025,0,179.2,29.817,179.2,51.2     c0,21.383-68.175,51.2-179.2,51.2s-179.2-29.817-179.2-51.2C17.454,46.883,85.629,17.067,196.654,17.067z M17.454,341.333     v-38.965c14.759,10.411,31.283,18.062,48.771,22.582c4.52,1.342,9.271-1.235,10.613-5.754s-1.235-9.271-5.754-10.613     c-39.542-11.733-53.629-26.041-53.629-35.516v-38.965c14.759,10.411,31.283,18.062,48.771,22.582     c4.52,1.342,9.271-1.235,10.613-5.754s-1.235-9.271-5.754-10.613c-39.542-11.733-53.629-26.041-53.629-35.516v-38.965     c14.759,10.411,31.283,18.062,48.771,22.582c4.52,1.342,9.271-1.235,10.613-5.754s-1.235-9.271-5.754-10.613     c-39.542-11.733-53.629-26.041-53.629-35.516V97.457c32.78,25.552,107.672,39.077,179.2,39.077s146.42-13.524,179.2-39.077     v39.077c0,21.383-68.175,51.2-179.2,51.2c-8.558,0-16.969-0.181-25.233-0.542c-4.685-0.167-8.628,3.477-8.83,8.161     s3.414,8.653,8.096,8.889c8.492,0.367,17.147,0.553,25.966,0.559c71.528,0,146.42-13.524,179.2-39.077V204.8     c0,21.383-68.175,51.2-179.2,51.2c-8.558,0-16.969-0.181-25.233-0.542c-4.688-0.148-8.637,3.475-8.892,8.158     c-0.098,2.261,0.707,4.469,2.237,6.136c1.53,1.668,3.66,2.659,5.922,2.755c8.492,0.367,17.147,0.553,25.966,0.558     c71.528,0,146.42-13.524,179.2-39.076v39.172c-0.564-0.013-1.112-0.095-1.679-0.095c-29.757,0.688-56.684,17.801-69.942,44.45     c-12.26-8.311-26.73-12.755-41.542-12.758c-18.504,0.091-36.34,6.926-50.167,19.223c-13.633,0.447-27.75,0.32-41.12-0.215     c-2.277-0.156-4.517,0.632-6.196,2.178s-2.647,3.715-2.679,5.997c-0.193,4.708,3.467,8.681,8.175,8.875     c8.479,0.35,17.129,0.523,25.95,0.517c0.209,0,0.413-0.011,0.622-0.011c-7.184,10.842-12.108,23.022-14.477,35.811     c-3.519-0.705-7.099-1.06-10.688-1.058c-13.163,0.087-25.88,4.784-35.939,13.274C59.081,380.769,17.454,358.379,17.454,341.333z      M450.821,494.933H172.112c-24.108,0-43.725-22.833-43.725-50.892c0-28.067,19.617-50.9,43.725-50.9     c4.946-0.014,9.843,0.987,14.387,2.942c2.517,1.088,5.404,0.899,7.758-0.508c2.354-1.407,3.887-3.86,4.121-6.592     c1.374-19.275,9.859-37.353,23.809-50.725l0.034-0.032c10.915-10.412,25.385-16.276,40.469-16.401     c14.501,0.092,28.451,5.569,39.142,15.367c2.086,1.854,4.947,2.569,7.659,1.916c2.713-0.653,4.935-2.592,5.949-5.191     c8.66-25.321,31.994-42.715,58.734-43.784c35.638,0,64.629,33.492,64.629,74.667c0.001,6.186-0.659,12.354-1.967,18.4     c-0.603,2.767,0.207,5.652,2.162,7.7c1.963,2.037,4.8,2.98,7.592,2.525c1.399-0.215,2.814-0.309,4.229-0.283     c24.108,0,43.725,22.833,43.725,50.9C494.546,472.1,474.929,494.933,450.821,494.933z" fill="#FFFFFF"/>
		</g>
	</g>
</g>
<g>
</g>
<g>
</g>
<g>
</g>
<g>
</g>
<g>
</g>
<g>
</g>
<g>
</g>
<g>
</g>
<g>
</g>
<g>
</g>
<g>
</g>
<g>
</g>
<g>
</g>
<g>
</g>
<g>
</g>
</svg>
